<?xml version="1.0" encoding="UTF-8" standalone="no"?>
<!DOCTYPE svg PUBLIC "-//W3C//DTD SVG 1.1//EN" "http://www.w3.org/Graphics/SVG/1.1/DTD/svg11.dtd">
<svg width="288px" height="192px" version="1.1" xmlns="http://www.w3.org/2000/svg" xmlns:xlink="http://www.w3.org/1999/xlink" xml:space="preserve" xmlns:serif="http://www.serif.com/" style="fill-rule:evenodd;clip-rule:evenodd;stroke-linecap:round;stroke-linejoin:round;stroke-miterlimit:1.5;">
    <rect x="16" y="16" width="256" height="32" style="fill:white;stroke:black;stroke-width:1px;"/>
    <text x="31.314px" y="37.098px" style="font-family:'ArialMT', 'Arial', sans-serif;font-size:20px;">141 Pixel vorwärts gehen</text>
    <rect x="16" y="80" width="256" height="32" style="fill:white;stroke:black;stroke-width:1px;"/>
    <text x="31.314px" y="101.098px" style="font-family:'ArialMT', 'Arial', sans-serif;font-size:20px;">100 Pixel vorwärts gehen</text>
    <rect x="16" y="48" width="256" height="32" style="fill:white;stroke:black;stroke-width:1px;"/>
    <text x="47.989px" y="71.158px" style="font-family:'ArialMT', 'Arial', sans-serif;font-size:20px;">135° nach links drehen</text>
    <rect x="16" y="144" width="256" height="32" style="fill:white;stroke:black;stroke-width:1px;"/>
    <text x="31.314px" y="165.098px" style="font-family:'ArialMT', 'Arial', sans-serif;font-size:20px;">100 Pixel vorwärts gehen</text>
    <rect x="16" y="112" width="256" height="32" style="fill:white;stroke:black;stroke-width:1px;"/>
    <text x="47.989px" y="135.158px" style="font-family:'ArialMT', 'Arial', sans-serif;font-size:20px;">90° nach links drehen</text>
</svg>
