<?xml version="1.0" encoding="UTF-8" standalone="no"?>
<svg
   xmlns:dc="http://purl.org/dc/elements/1.1/"
   xmlns:cc="http://creativecommons.org/ns#"
   xmlns:rdf="http://www.w3.org/1999/02/22-rdf-syntax-ns#"
   xmlns:svg="http://www.w3.org/2000/svg"
   xmlns="http://www.w3.org/2000/svg"
   xmlns:xlink="http://www.w3.org/1999/xlink"
   xmlns:sodipodi="http://sodipodi.sourceforge.net/DTD/sodipodi-0.dtd"
   xmlns:inkscape="http://www.inkscape.org/namespaces/inkscape"
   width="352pt"
   height="549pt"
   viewBox="0 0 352 549"
   version="1.1"
   id="svg844"
   sodipodi:docname="flowchart-bubble-sort.svg"
   inkscape:version="0.92.4 (5da689c313, 2019-01-14)">
  <metadata
     id="metadata848">
    <rdf:RDF>
      <cc:Work
         rdf:about="">
        <dc:format>image/svg+xml</dc:format>
        <dc:type
           rdf:resource="http://purl.org/dc/dcmitype/StillImage" />
        <dc:title></dc:title>
      </cc:Work>
    </rdf:RDF>
  </metadata>
  <sodipodi:namedview
     pagecolor="#ffffff"
     bordercolor="#666666"
     borderopacity="1"
     objecttolerance="10"
     gridtolerance="10"
     guidetolerance="10"
     inkscape:pageopacity="0"
     inkscape:pageshadow="2"
     inkscape:window-width="640"
     inkscape:window-height="480"
     id="namedview846"
     showgrid="false"
     inkscape:zoom="1.0741841"
     inkscape:cx="118.8729"
     inkscape:cy="612.18128"
     inkscape:current-layer="svg844" />
  <defs
     id="defs109">
    <g
       id="g107">
      <symbol
         overflow="visible"
         id="glyph0-0">
        <path
           style="stroke:none;"
           d="M 0.421875 1.5 L 0.421875 -5.96875 L 4.65625 -5.96875 L 4.65625 1.5 Z M 0.890625 1.03125 L 4.1875 1.03125 L 4.1875 -5.5 L 0.890625 -5.5 Z M 0.890625 1.03125 "
           id="path2" />
      </symbol>
      <symbol
         overflow="visible"
         id="glyph0-1">
        <path
           style="stroke:none;"
           d="M 0.828125 -6.171875 L 1.671875 -6.171875 L 1.671875 -0.4375 C 1.671875 0.3125 1.523438 0.851562 1.234375 1.1875 C 0.953125 1.53125 0.5 1.703125 -0.125 1.703125 L -0.4375 1.703125 L -0.4375 1 L -0.171875 1 C 0.191406 1 0.445312 0.894531 0.59375 0.6875 C 0.75 0.476562 0.828125 0.101562 0.828125 -0.4375 Z M 0.828125 -6.171875 "
           id="path5" />
      </symbol>
      <symbol
         overflow="visible"
         id="glyph0-2">
        <path
           style="stroke:none;"
           d="M 2.90625 -2.328125 C 2.289062 -2.328125 1.863281 -2.253906 1.625 -2.109375 C 1.382812 -1.972656 1.265625 -1.734375 1.265625 -1.390625 C 1.265625 -1.128906 1.351562 -0.914062 1.53125 -0.75 C 1.707031 -0.59375 1.953125 -0.515625 2.265625 -0.515625 C 2.679688 -0.515625 3.015625 -0.664062 3.265625 -0.96875 C 3.523438 -1.269531 3.65625 -1.664062 3.65625 -2.15625 L 3.65625 -2.328125 Z M 4.421875 -2.640625 L 4.421875 0 L 3.65625 0 L 3.65625 -0.703125 C 3.488281 -0.421875 3.273438 -0.210938 3.015625 -0.078125 C 2.753906 0.0546875 2.4375 0.125 2.0625 0.125 C 1.582031 0.125 1.203125 -0.00390625 0.921875 -0.265625 C 0.648438 -0.535156 0.515625 -0.894531 0.515625 -1.34375 C 0.515625 -1.863281 0.6875 -2.253906 1.03125 -2.515625 C 1.382812 -2.785156 1.90625 -2.921875 2.59375 -2.921875 L 3.65625 -2.921875 L 3.65625 -3 C 3.65625 -3.34375 3.539062 -3.609375 3.3125 -3.796875 C 3.082031 -3.992188 2.757812 -4.09375 2.34375 -4.09375 C 2.082031 -4.09375 1.820312 -4.0625 1.5625 -4 C 1.3125 -3.9375 1.070312 -3.84375 0.84375 -3.71875 L 0.84375 -4.421875 C 1.125 -4.523438 1.394531 -4.601562 1.65625 -4.65625 C 1.914062 -4.71875 2.171875 -4.75 2.421875 -4.75 C 3.085938 -4.75 3.585938 -4.570312 3.921875 -4.21875 C 4.253906 -3.875 4.421875 -3.347656 4.421875 -2.640625 Z M 4.421875 -2.640625 "
           id="path8" />
      </symbol>
      <symbol
         overflow="visible"
         id="glyph0-3">
        <path
           style="stroke:none;"
           d="M 0.828125 -6.171875 L 1.671875 -6.171875 L 1.671875 0 L 0.828125 0 Z M 0.828125 -6.171875 "
           id="path11" />
      </symbol>
      <symbol
         overflow="visible"
         id="glyph0-4">
        <path
           style="stroke:none;"
           d="M 3.75 -4.5 L 3.75 -3.78125 C 3.53125 -3.882812 3.304688 -3.960938 3.078125 -4.015625 C 2.847656 -4.078125 2.609375 -4.109375 2.359375 -4.109375 C 1.984375 -4.109375 1.703125 -4.050781 1.515625 -3.9375 C 1.328125 -3.820312 1.234375 -3.644531 1.234375 -3.40625 C 1.234375 -3.226562 1.300781 -3.085938 1.4375 -2.984375 C 1.570312 -2.890625 1.84375 -2.796875 2.25 -2.703125 L 2.5 -2.65625 C 3.039062 -2.539062 3.425781 -2.375 3.65625 -2.15625 C 3.882812 -1.945312 4 -1.65625 4 -1.28125 C 4 -0.84375 3.828125 -0.5 3.484375 -0.25 C 3.148438 0 2.679688 0.125 2.078125 0.125 C 1.835938 0.125 1.582031 0.0976562 1.3125 0.046875 C 1.039062 -0.00390625 0.753906 -0.078125 0.453125 -0.171875 L 0.453125 -0.953125 C 0.734375 -0.804688 1.007812 -0.695312 1.28125 -0.625 C 1.5625 -0.550781 1.832031 -0.515625 2.09375 -0.515625 C 2.457031 -0.515625 2.734375 -0.578125 2.921875 -0.703125 C 3.117188 -0.828125 3.21875 -1 3.21875 -1.21875 C 3.21875 -1.425781 3.144531 -1.582031 3 -1.6875 C 2.863281 -1.800781 2.5625 -1.910156 2.09375 -2.015625 L 1.828125 -2.078125 C 1.359375 -2.171875 1.015625 -2.320312 0.796875 -2.53125 C 0.585938 -2.738281 0.484375 -3.019531 0.484375 -3.375 C 0.484375 -3.8125 0.640625 -4.148438 0.953125 -4.390625 C 1.265625 -4.628906 1.703125 -4.75 2.265625 -4.75 C 2.546875 -4.75 2.8125 -4.726562 3.0625 -4.6875 C 3.3125 -4.644531 3.539062 -4.582031 3.75 -4.5 Z M 3.75 -4.5 "
           id="path14" />
      </symbol>
      <symbol
         overflow="visible"
         id="glyph0-5">
        <path
           style="stroke:none;"
           d="M 1.546875 -5.953125 L 1.546875 -4.625 L 3.125 -4.625 L 3.125 -4.046875 L 1.546875 -4.046875 L 1.546875 -1.53125 C 1.546875 -1.144531 1.597656 -0.898438 1.703125 -0.796875 C 1.804688 -0.691406 2.019531 -0.640625 2.34375 -0.640625 L 3.125 -0.640625 L 3.125 0 L 2.34375 0 C 1.75 0 1.335938 -0.109375 1.109375 -0.328125 C 0.890625 -0.546875 0.78125 -0.945312 0.78125 -1.53125 L 0.78125 -4.046875 L 0.234375 -4.046875 L 0.234375 -4.625 L 0.78125 -4.625 L 0.78125 -5.953125 Z M 1.546875 -5.953125 "
           id="path17" />
      </symbol>
      <symbol
         overflow="visible"
         id="glyph0-6">
        <path
           style="stroke:none;"
           d=""
           id="path20" />
      </symbol>
      <symbol
         overflow="visible"
         id="glyph0-7">
        <path
           style="stroke:none;"
           d="M 0.828125 -6.171875 L 1.671875 -6.171875 L 1.671875 -3.5625 L 4.4375 -6.171875 L 5.515625 -6.171875 L 2.453125 -3.296875 L 5.734375 0 L 4.625 0 L 1.671875 -2.96875 L 1.671875 0 L 0.828125 0 Z M 0.828125 -6.171875 "
           id="path23" />
      </symbol>
      <symbol
         overflow="visible"
         id="glyph0-8">
        <path
           style="stroke:none;"
           d="M 3.484375 -3.921875 C 3.398438 -3.972656 3.304688 -4.007812 3.203125 -4.03125 C 3.097656 -4.050781 2.988281 -4.0625 2.875 -4.0625 C 2.4375 -4.0625 2.101562 -3.921875 1.875 -3.640625 C 1.644531 -3.359375 1.53125 -2.957031 1.53125 -2.4375 L 1.53125 0 L 0.765625 0 L 0.765625 -4.625 L 1.53125 -4.625 L 1.53125 -3.90625 C 1.695312 -4.1875 1.90625 -4.394531 2.15625 -4.53125 C 2.414062 -4.675781 2.726562 -4.75 3.09375 -4.75 C 3.144531 -4.75 3.203125 -4.742188 3.265625 -4.734375 C 3.328125 -4.722656 3.398438 -4.710938 3.484375 -4.703125 Z M 3.484375 -3.921875 "
           id="path26" />
      </symbol>
      <symbol
         overflow="visible"
         id="glyph0-9">
        <path
           style="stroke:none;"
           d="M 4.765625 -2.5 L 4.765625 -2.140625 L 1.265625 -2.140625 C 1.296875 -1.609375 1.453125 -1.207031 1.734375 -0.9375 C 2.015625 -0.664062 2.410156 -0.53125 2.921875 -0.53125 C 3.210938 -0.53125 3.492188 -0.5625 3.765625 -0.625 C 4.035156 -0.695312 4.304688 -0.804688 4.578125 -0.953125 L 4.578125 -0.234375 C 4.304688 -0.117188 4.023438 -0.03125 3.734375 0.03125 C 3.453125 0.09375 3.164062 0.125 2.875 0.125 C 2.132812 0.125 1.546875 -0.0859375 1.109375 -0.515625 C 0.679688 -0.953125 0.46875 -1.535156 0.46875 -2.265625 C 0.46875 -3.023438 0.671875 -3.628906 1.078125 -4.078125 C 1.492188 -4.523438 2.046875 -4.75 2.734375 -4.75 C 3.359375 -4.75 3.851562 -4.546875 4.21875 -4.140625 C 4.582031 -3.742188 4.765625 -3.195312 4.765625 -2.5 Z M 4 -2.734375 C 3.988281 -3.148438 3.867188 -3.476562 3.640625 -3.71875 C 3.421875 -3.96875 3.125 -4.09375 2.75 -4.09375 C 2.320312 -4.09375 1.976562 -3.972656 1.71875 -3.734375 C 1.46875 -3.492188 1.320312 -3.15625 1.28125 -2.71875 Z M 4 -2.734375 "
           id="path29" />
      </symbol>
      <symbol
         overflow="visible"
         id="glyph0-10">
        <path
           style="stroke:none;"
           d="M 4.40625 -3.75 C 4.59375 -4.082031 4.816406 -4.332031 5.078125 -4.5 C 5.347656 -4.664062 5.660156 -4.75 6.015625 -4.75 C 6.503906 -4.75 6.878906 -4.578125 7.140625 -4.234375 C 7.398438 -3.898438 7.53125 -3.421875 7.53125 -2.796875 L 7.53125 0 L 6.765625 0 L 6.765625 -2.765625 C 6.765625 -3.210938 6.6875 -3.539062 6.53125 -3.75 C 6.375 -3.96875 6.132812 -4.078125 5.8125 -4.078125 C 5.414062 -4.078125 5.101562 -3.945312 4.875 -3.6875 C 4.644531 -3.425781 4.53125 -3.070312 4.53125 -2.625 L 4.53125 0 L 3.765625 0 L 3.765625 -2.765625 C 3.765625 -3.210938 3.6875 -3.539062 3.53125 -3.75 C 3.375 -3.96875 3.128906 -4.078125 2.796875 -4.078125 C 2.410156 -4.078125 2.101562 -3.945312 1.875 -3.6875 C 1.644531 -3.425781 1.53125 -3.070312 1.53125 -2.625 L 1.53125 0 L 0.765625 0 L 0.765625 -4.625 L 1.53125 -4.625 L 1.53125 -3.90625 C 1.707031 -4.195312 1.914062 -4.410156 2.15625 -4.546875 C 2.394531 -4.679688 2.679688 -4.75 3.015625 -4.75 C 3.359375 -4.75 3.644531 -4.660156 3.875 -4.484375 C 4.113281 -4.316406 4.289062 -4.070312 4.40625 -3.75 Z M 4.40625 -3.75 "
           id="path32" />
      </symbol>
      <symbol
         overflow="visible"
         id="glyph0-11">
        <path
           style="stroke:none;"
           d="M 0.796875 -4.625 L 1.5625 -4.625 L 1.5625 0 L 0.796875 0 Z M 0.796875 -6.4375 L 1.5625 -6.4375 L 1.5625 -5.46875 L 0.796875 -5.46875 Z M 0.796875 -6.4375 "
           id="path35" />
      </symbol>
      <symbol
         overflow="visible"
         id="glyph0-12">
        <path
           style="stroke:none;"
           d="M 4.53125 -5.96875 L 4.53125 -5.15625 C 4.21875 -5.3125 3.921875 -5.425781 3.640625 -5.5 C 3.359375 -5.570312 3.082031 -5.609375 2.8125 -5.609375 C 2.363281 -5.609375 2.015625 -5.519531 1.765625 -5.34375 C 1.515625 -5.164062 1.390625 -4.914062 1.390625 -4.59375 C 1.390625 -4.320312 1.472656 -4.113281 1.640625 -3.96875 C 1.804688 -3.832031 2.117188 -3.722656 2.578125 -3.640625 L 3.078125 -3.53125 C 3.703125 -3.414062 4.160156 -3.207031 4.453125 -2.90625 C 4.753906 -2.601562 4.90625 -2.203125 4.90625 -1.703125 C 4.90625 -1.109375 4.703125 -0.65625 4.296875 -0.34375 C 3.898438 -0.03125 3.3125 0.125 2.53125 0.125 C 2.238281 0.125 1.925781 0.0859375 1.59375 0.015625 C 1.269531 -0.046875 0.929688 -0.140625 0.578125 -0.265625 L 0.578125 -1.140625 C 0.921875 -0.941406 1.253906 -0.796875 1.578125 -0.703125 C 1.898438 -0.609375 2.21875 -0.5625 2.53125 -0.5625 C 3.007812 -0.5625 3.378906 -0.65625 3.640625 -0.84375 C 3.898438 -1.03125 4.03125 -1.296875 4.03125 -1.640625 C 4.03125 -1.941406 3.9375 -2.175781 3.75 -2.34375 C 3.5625 -2.519531 3.257812 -2.648438 2.84375 -2.734375 L 2.328125 -2.84375 C 1.703125 -2.957031 1.25 -3.144531 0.96875 -3.40625 C 0.695312 -3.675781 0.5625 -4.050781 0.5625 -4.53125 C 0.5625 -5.070312 0.753906 -5.5 1.140625 -5.8125 C 1.523438 -6.125 2.050781 -6.28125 2.71875 -6.28125 C 3.007812 -6.28125 3.304688 -6.253906 3.609375 -6.203125 C 3.910156 -6.148438 4.21875 -6.070312 4.53125 -5.96875 Z M 4.53125 -5.96875 "
           id="path38" />
      </symbol>
      <symbol
         overflow="visible"
         id="glyph0-13">
        <path
           style="stroke:none;"
           d="M 4.640625 -2.796875 L 4.640625 0 L 3.890625 0 L 3.890625 -2.765625 C 3.890625 -3.203125 3.800781 -3.53125 3.625 -3.75 C 3.457031 -3.96875 3.203125 -4.078125 2.859375 -4.078125 C 2.453125 -4.078125 2.128906 -3.945312 1.890625 -3.6875 C 1.648438 -3.425781 1.53125 -3.070312 1.53125 -2.625 L 1.53125 0 L 0.765625 0 L 0.765625 -4.625 L 1.53125 -4.625 L 1.53125 -3.90625 C 1.71875 -4.1875 1.929688 -4.394531 2.171875 -4.53125 C 2.421875 -4.675781 2.707031 -4.75 3.03125 -4.75 C 3.5625 -4.75 3.960938 -4.582031 4.234375 -4.25 C 4.503906 -3.914062 4.640625 -3.429688 4.640625 -2.796875 Z M 4.640625 -2.796875 "
           id="path41" />
      </symbol>
      <symbol
         overflow="visible"
         id="glyph0-14">
        <path
           style="stroke:none;"
           d="M 3.84375 -2.375 C 3.84375 -2.925781 3.726562 -3.351562 3.5 -3.65625 C 3.269531 -3.957031 2.953125 -4.109375 2.546875 -4.109375 C 2.140625 -4.109375 1.820312 -3.957031 1.59375 -3.65625 C 1.363281 -3.351562 1.25 -2.925781 1.25 -2.375 C 1.25 -1.820312 1.363281 -1.394531 1.59375 -1.09375 C 1.820312 -0.789062 2.140625 -0.640625 2.546875 -0.640625 C 2.953125 -0.640625 3.269531 -0.789062 3.5 -1.09375 C 3.726562 -1.394531 3.84375 -1.820312 3.84375 -2.375 Z M 4.609375 -0.578125 C 4.609375 0.210938 4.429688 0.800781 4.078125 1.1875 C 3.734375 1.570312 3.195312 1.765625 2.46875 1.765625 C 2.207031 1.765625 1.957031 1.742188 1.71875 1.703125 C 1.476562 1.660156 1.25 1.597656 1.03125 1.515625 L 1.03125 0.78125 C 1.25 0.894531 1.46875 0.984375 1.6875 1.046875 C 1.90625 1.109375 2.128906 1.140625 2.359375 1.140625 C 2.847656 1.140625 3.21875 1.003906 3.46875 0.734375 C 3.71875 0.472656 3.84375 0.0820312 3.84375 -0.4375 L 3.84375 -0.8125 C 3.6875 -0.539062 3.484375 -0.335938 3.234375 -0.203125 C 2.992188 -0.0664062 2.703125 0 2.359375 0 C 1.796875 0 1.335938 -0.210938 0.984375 -0.640625 C 0.640625 -1.078125 0.46875 -1.65625 0.46875 -2.375 C 0.46875 -3.082031 0.640625 -3.65625 0.984375 -4.09375 C 1.335938 -4.53125 1.796875 -4.75 2.359375 -4.75 C 2.703125 -4.75 2.992188 -4.679688 3.234375 -4.546875 C 3.484375 -4.410156 3.6875 -4.203125 3.84375 -3.921875 L 3.84375 -4.625 L 4.609375 -4.625 Z M 4.609375 -0.578125 "
           id="path44" />
      </symbol>
      <symbol
         overflow="visible"
         id="glyph0-15">
        <path
           style="stroke:none;"
           d="M 2.59375 -4.09375 C 2.1875 -4.09375 1.863281 -3.929688 1.625 -3.609375 C 1.382812 -3.296875 1.265625 -2.863281 1.265625 -2.3125 C 1.265625 -1.757812 1.382812 -1.320312 1.625 -1 C 1.863281 -0.6875 2.1875 -0.53125 2.59375 -0.53125 C 3 -0.53125 3.316406 -0.6875 3.546875 -1 C 3.785156 -1.320312 3.90625 -1.757812 3.90625 -2.3125 C 3.90625 -2.863281 3.785156 -3.296875 3.546875 -3.609375 C 3.316406 -3.929688 3 -4.09375 2.59375 -4.09375 Z M 2.59375 -4.75 C 3.25 -4.75 3.765625 -4.53125 4.140625 -4.09375 C 4.523438 -3.664062 4.71875 -3.070312 4.71875 -2.3125 C 4.71875 -1.550781 4.523438 -0.953125 4.140625 -0.515625 C 3.765625 -0.0859375 3.25 0.125 2.59375 0.125 C 1.925781 0.125 1.40625 -0.0859375 1.03125 -0.515625 C 0.65625 -0.953125 0.46875 -1.550781 0.46875 -2.3125 C 0.46875 -3.070312 0.65625 -3.664062 1.03125 -4.09375 C 1.40625 -4.53125 1.925781 -4.75 2.59375 -4.75 Z M 2.96875 -6.421875 L 3.8125 -6.421875 L 3.8125 -5.578125 L 2.96875 -5.578125 Z M 1.359375 -6.421875 L 2.203125 -6.421875 L 2.203125 -5.578125 L 1.359375 -5.578125 Z M 1.359375 -6.421875 "
           id="path47" />
      </symbol>
      <symbol
         overflow="visible"
         id="glyph0-16">
        <path
           style="stroke:none;"
           d="M 0.796875 -6.4375 L 1.5625 -6.4375 L 1.5625 0 L 0.796875 0 Z M 0.796875 -6.4375 "
           id="path50" />
      </symbol>
      <symbol
         overflow="visible"
         id="glyph0-17">
        <path
           style="stroke:none;"
           d="M 4.125 -4.453125 L 4.125 -3.75 C 3.914062 -3.863281 3.703125 -3.945312 3.484375 -4 C 3.265625 -4.0625 3.046875 -4.09375 2.828125 -4.09375 C 2.335938 -4.09375 1.953125 -3.9375 1.671875 -3.625 C 1.398438 -3.3125 1.265625 -2.875 1.265625 -2.3125 C 1.265625 -1.75 1.398438 -1.3125 1.671875 -1 C 1.953125 -0.6875 2.335938 -0.53125 2.828125 -0.53125 C 3.046875 -0.53125 3.265625 -0.554688 3.484375 -0.609375 C 3.703125 -0.671875 3.914062 -0.757812 4.125 -0.875 L 4.125 -0.171875 C 3.914062 -0.078125 3.695312 -0.00390625 3.46875 0.046875 C 3.238281 0.0976562 3 0.125 2.75 0.125 C 2.050781 0.125 1.492188 -0.09375 1.078125 -0.53125 C 0.671875 -0.96875 0.46875 -1.5625 0.46875 -2.3125 C 0.46875 -3.0625 0.675781 -3.65625 1.09375 -4.09375 C 1.507812 -4.53125 2.078125 -4.75 2.796875 -4.75 C 3.023438 -4.75 3.25 -4.722656 3.46875 -4.671875 C 3.695312 -4.617188 3.914062 -4.546875 4.125 -4.453125 Z M 4.125 -4.453125 "
           id="path53" />
      </symbol>
      <symbol
         overflow="visible"
         id="glyph0-18">
        <path
           style="stroke:none;"
           d="M 4.640625 -2.796875 L 4.640625 0 L 3.890625 0 L 3.890625 -2.765625 C 3.890625 -3.203125 3.800781 -3.53125 3.625 -3.75 C 3.457031 -3.96875 3.203125 -4.078125 2.859375 -4.078125 C 2.453125 -4.078125 2.128906 -3.945312 1.890625 -3.6875 C 1.648438 -3.425781 1.53125 -3.070312 1.53125 -2.625 L 1.53125 0 L 0.765625 0 L 0.765625 -6.4375 L 1.53125 -6.4375 L 1.53125 -3.90625 C 1.71875 -4.1875 1.929688 -4.394531 2.171875 -4.53125 C 2.421875 -4.675781 2.707031 -4.75 3.03125 -4.75 C 3.5625 -4.75 3.960938 -4.582031 4.234375 -4.25 C 4.503906 -3.914062 4.640625 -3.429688 4.640625 -2.796875 Z M 4.640625 -2.796875 "
           id="path56" />
      </symbol>
      <symbol
         overflow="visible"
         id="glyph0-19">
        <path
           style="stroke:none;"
           d="M 3.84375 -3.921875 L 3.84375 -6.4375 L 4.609375 -6.4375 L 4.609375 0 L 3.84375 0 L 3.84375 -0.6875 C 3.6875 -0.414062 3.484375 -0.210938 3.234375 -0.078125 C 2.992188 0.0546875 2.703125 0.125 2.359375 0.125 C 1.796875 0.125 1.335938 -0.0976562 0.984375 -0.546875 C 0.640625 -0.992188 0.46875 -1.582031 0.46875 -2.3125 C 0.46875 -3.039062 0.640625 -3.628906 0.984375 -4.078125 C 1.335938 -4.523438 1.796875 -4.75 2.359375 -4.75 C 2.703125 -4.75 2.992188 -4.679688 3.234375 -4.546875 C 3.484375 -4.410156 3.6875 -4.203125 3.84375 -3.921875 Z M 1.25 -2.3125 C 1.25 -1.75 1.363281 -1.304688 1.59375 -0.984375 C 1.820312 -0.671875 2.140625 -0.515625 2.546875 -0.515625 C 2.953125 -0.515625 3.269531 -0.671875 3.5 -0.984375 C 3.726562 -1.304688 3.84375 -1.75 3.84375 -2.3125 C 3.84375 -2.875 3.726562 -3.3125 3.5 -3.625 C 3.269531 -3.945312 2.953125 -4.109375 2.546875 -4.109375 C 2.140625 -4.109375 1.820312 -3.945312 1.59375 -3.625 C 1.363281 -3.3125 1.25 -2.875 1.25 -2.3125 Z M 1.25 -2.3125 "
           id="path59" />
      </symbol>
      <symbol
         overflow="visible"
         id="glyph0-20">
        <path
           style="stroke:none;"
           d="M 0.25 -4.625 L 1.0625 -4.625 L 2.5 -0.75 L 3.953125 -4.625 L 4.765625 -4.625 L 3.015625 0 L 1.984375 0 Z M 0.25 -4.625 "
           id="path62" />
      </symbol>
      <symbol
         overflow="visible"
         id="glyph0-21">
        <path
           style="stroke:none;"
           d="M 2.59375 -4.09375 C 2.1875 -4.09375 1.863281 -3.929688 1.625 -3.609375 C 1.382812 -3.296875 1.265625 -2.863281 1.265625 -2.3125 C 1.265625 -1.757812 1.382812 -1.320312 1.625 -1 C 1.863281 -0.6875 2.1875 -0.53125 2.59375 -0.53125 C 3 -0.53125 3.316406 -0.6875 3.546875 -1 C 3.785156 -1.320312 3.90625 -1.757812 3.90625 -2.3125 C 3.90625 -2.863281 3.785156 -3.296875 3.546875 -3.609375 C 3.316406 -3.929688 3 -4.09375 2.59375 -4.09375 Z M 2.59375 -4.75 C 3.25 -4.75 3.765625 -4.53125 4.140625 -4.09375 C 4.523438 -3.664062 4.71875 -3.070312 4.71875 -2.3125 C 4.71875 -1.550781 4.523438 -0.953125 4.140625 -0.515625 C 3.765625 -0.0859375 3.25 0.125 2.59375 0.125 C 1.925781 0.125 1.40625 -0.0859375 1.03125 -0.515625 C 0.65625 -0.953125 0.46875 -1.550781 0.46875 -2.3125 C 0.46875 -3.070312 0.65625 -3.664062 1.03125 -4.09375 C 1.40625 -4.53125 1.925781 -4.75 2.59375 -4.75 Z M 2.59375 -4.75 "
           id="path65" />
      </symbol>
      <symbol
         overflow="visible"
         id="glyph0-22">
        <path
           style="stroke:none;"
           d="M 1.609375 -1.046875 L 2.453125 -1.046875 L 2.453125 0 L 1.609375 0 Z M 2.4375 -1.65625 L 1.640625 -1.65625 L 1.640625 -2.296875 C 1.640625 -2.578125 1.675781 -2.804688 1.75 -2.984375 C 1.832031 -3.160156 2 -3.367188 2.25 -3.609375 L 2.625 -3.96875 C 2.78125 -4.113281 2.890625 -4.25 2.953125 -4.375 C 3.023438 -4.507812 3.0625 -4.644531 3.0625 -4.78125 C 3.0625 -5.03125 2.96875 -5.226562 2.78125 -5.375 C 2.601562 -5.53125 2.367188 -5.609375 2.078125 -5.609375 C 1.859375 -5.609375 1.625 -5.554688 1.375 -5.453125 C 1.132812 -5.359375 0.878906 -5.222656 0.609375 -5.046875 L 0.609375 -5.8125 C 0.867188 -5.96875 1.128906 -6.082031 1.390625 -6.15625 C 1.660156 -6.238281 1.9375 -6.28125 2.21875 -6.28125 C 2.726562 -6.28125 3.132812 -6.144531 3.4375 -5.875 C 3.75 -5.613281 3.90625 -5.265625 3.90625 -4.828125 C 3.90625 -4.617188 3.851562 -4.414062 3.75 -4.21875 C 3.65625 -4.03125 3.484375 -3.820312 3.234375 -3.59375 L 2.875 -3.234375 C 2.738281 -3.109375 2.644531 -3.003906 2.59375 -2.921875 C 2.539062 -2.847656 2.503906 -2.78125 2.484375 -2.71875 C 2.460938 -2.65625 2.445312 -2.582031 2.4375 -2.5 C 2.4375 -2.414062 2.4375 -2.304688 2.4375 -2.171875 Z M 2.4375 -1.65625 "
           id="path68" />
      </symbol>
      <symbol
         overflow="visible"
         id="glyph0-23">
        <path
           style="stroke:none;"
           d="M 0.828125 -6.171875 L 1.671875 -6.171875 L 1.671875 -0.703125 L 4.671875 -0.703125 L 4.671875 0 L 0.828125 0 Z M 0.828125 -6.171875 "
           id="path71" />
      </symbol>
      <symbol
         overflow="visible"
         id="glyph0-24">
        <path
           style="stroke:none;"
           d="M 0.359375 -4.625 L 1.109375 -4.625 L 2.0625 -1.015625 L 3.015625 -4.625 L 3.90625 -4.625 L 4.859375 -1.015625 L 5.8125 -4.625 L 6.578125 -4.625 L 5.359375 0 L 4.46875 0 L 3.46875 -3.796875 L 2.46875 0 L 1.5625 0 Z M 0.359375 -4.625 "
           id="path74" />
      </symbol>
      <symbol
         overflow="visible"
         id="glyph0-25">
        <path
           style="stroke:none;"
           d="M 0.46875 -4.625 L 4.078125 -4.625 L 4.078125 -3.9375 L 1.21875 -0.609375 L 4.078125 -0.609375 L 4.078125 0 L 0.359375 0 L 0.359375 -0.6875 L 3.21875 -4.03125 L 0.46875 -4.03125 Z M 0.46875 -4.625 "
           id="path77" />
      </symbol>
      <symbol
         overflow="visible"
         id="glyph0-26">
        <path
           style="stroke:none;"
           d="M 4.125 -2.3125 C 4.125 -2.875 4.007812 -3.3125 3.78125 -3.625 C 3.550781 -3.945312 3.234375 -4.109375 2.828125 -4.109375 C 2.421875 -4.109375 2.101562 -3.945312 1.875 -3.625 C 1.644531 -3.3125 1.53125 -2.875 1.53125 -2.3125 C 1.53125 -1.75 1.644531 -1.304688 1.875 -0.984375 C 2.101562 -0.671875 2.421875 -0.515625 2.828125 -0.515625 C 3.234375 -0.515625 3.550781 -0.671875 3.78125 -0.984375 C 4.007812 -1.304688 4.125 -1.75 4.125 -2.3125 Z M 1.53125 -3.921875 C 1.695312 -4.203125 1.898438 -4.410156 2.140625 -4.546875 C 2.378906 -4.679688 2.671875 -4.75 3.015625 -4.75 C 3.578125 -4.75 4.03125 -4.523438 4.375 -4.078125 C 4.726562 -3.628906 4.90625 -3.039062 4.90625 -2.3125 C 4.90625 -1.582031 4.726562 -0.992188 4.375 -0.546875 C 4.03125 -0.0976562 3.578125 0.125 3.015625 0.125 C 2.671875 0.125 2.378906 0.0546875 2.140625 -0.078125 C 1.898438 -0.210938 1.695312 -0.414062 1.53125 -0.6875 L 1.53125 0 L 0.765625 0 L 0.765625 -6.4375 L 1.53125 -6.4375 Z M 1.53125 -3.921875 "
           id="path80" />
      </symbol>
      <symbol
         overflow="visible"
         id="glyph0-27">
        <path
           style="stroke:none;"
           d="M 0.71875 -1.828125 L 0.71875 -4.625 L 1.484375 -4.625 L 1.484375 -1.859375 C 1.484375 -1.421875 1.566406 -1.09375 1.734375 -0.875 C 1.910156 -0.65625 2.164062 -0.546875 2.5 -0.546875 C 2.914062 -0.546875 3.242188 -0.675781 3.484375 -0.9375 C 3.722656 -1.195312 3.84375 -1.550781 3.84375 -2 L 3.84375 -4.625 L 4.59375 -4.625 L 4.59375 0 L 3.84375 0 L 3.84375 -0.71875 C 3.65625 -0.4375 3.4375 -0.222656 3.1875 -0.078125 C 2.945312 0.0546875 2.664062 0.125 2.34375 0.125 C 1.8125 0.125 1.40625 -0.0390625 1.125 -0.375 C 0.851562 -0.707031 0.71875 -1.191406 0.71875 -1.828125 Z M 2.640625 -4.75 Z M 2.640625 -4.75 "
           id="path83" />
      </symbol>
      <symbol
         overflow="visible"
         id="glyph0-28">
        <path
           style="stroke:none;"
           d="M 3.140625 -6.4375 L 3.140625 -5.796875 L 2.421875 -5.796875 C 2.140625 -5.796875 1.945312 -5.738281 1.84375 -5.625 C 1.738281 -5.519531 1.6875 -5.328125 1.6875 -5.046875 L 1.6875 -4.625 L 2.9375 -4.625 L 2.9375 -4.046875 L 1.6875 -4.046875 L 1.6875 0 L 0.921875 0 L 0.921875 -4.046875 L 0.1875 -4.046875 L 0.1875 -4.625 L 0.921875 -4.625 L 0.921875 -4.953125 C 0.921875 -5.472656 1.039062 -5.847656 1.28125 -6.078125 C 1.519531 -6.316406 1.898438 -6.4375 2.421875 -6.4375 Z M 3.140625 -6.4375 "
           id="path86" />
      </symbol>
      <symbol
         overflow="visible"
         id="glyph0-29">
        <path
           style="stroke:none;"
           d="M 0.765625 -6.4375 L 1.53125 -6.4375 L 1.53125 -2.640625 L 3.796875 -4.625 L 4.78125 -4.625 L 2.3125 -2.46875 L 4.875 0 L 3.890625 0 L 1.53125 -2.265625 L 1.53125 0 L 0.765625 0 Z M 0.765625 -6.4375 "
           id="path89" />
      </symbol>
      <symbol
         overflow="visible"
         id="glyph0-30">
        <path
           style="stroke:none;"
           d="M -0.03125 -6.171875 L 5.203125 -6.171875 L 5.203125 -5.46875 L 3 -5.46875 L 3 0 L 2.171875 0 L 2.171875 -5.46875 L -0.03125 -5.46875 Z M -0.03125 -6.171875 "
           id="path92" />
      </symbol>
      <symbol
         overflow="visible"
         id="glyph0-31">
        <path
           style="stroke:none;"
           d="M 2.421875 0 L 0.0625 -6.171875 L 0.9375 -6.171875 L 2.890625 -0.96875 L 4.859375 -6.171875 L 5.71875 -6.171875 L 3.375 0 Z M 2.421875 0 "
           id="path95" />
      </symbol>
      <symbol
         overflow="visible"
         id="glyph0-32">
        <path
           style="stroke:none;"
           d="M 0.828125 -6.171875 L 1.953125 -6.171875 L 4.6875 -1.015625 L 4.6875 -6.171875 L 5.5 -6.171875 L 5.5 0 L 4.375 0 L 1.640625 -5.171875 L 1.640625 0 L 0.828125 0 Z M 0.828125 -6.171875 "
           id="path98" />
      </symbol>
      <symbol
         overflow="visible"
         id="glyph0-33">
        <path
           style="stroke:none;"
           d="M 0.828125 -6.171875 L 4.734375 -6.171875 L 4.734375 -5.46875 L 1.671875 -5.46875 L 1.671875 -3.640625 L 4.609375 -3.640625 L 4.609375 -2.9375 L 1.671875 -2.9375 L 1.671875 -0.703125 L 4.8125 -0.703125 L 4.8125 0 L 0.828125 0 Z M 0.828125 -6.171875 "
           id="path101" />
      </symbol>
      <symbol
         overflow="visible"
         id="glyph0-34">
        <path
           style="stroke:none;"
           d="M 1.671875 -5.484375 L 1.671875 -0.6875 L 2.671875 -0.6875 C 3.523438 -0.6875 4.148438 -0.878906 4.546875 -1.265625 C 4.941406 -1.648438 5.140625 -2.257812 5.140625 -3.09375 C 5.140625 -3.914062 4.941406 -4.519531 4.546875 -4.90625 C 4.148438 -5.289062 3.523438 -5.484375 2.671875 -5.484375 Z M 0.828125 -6.171875 L 2.546875 -6.171875 C 3.742188 -6.171875 4.617188 -5.921875 5.171875 -5.421875 C 5.734375 -4.929688 6.015625 -4.15625 6.015625 -3.09375 C 6.015625 -2.03125 5.734375 -1.25 5.171875 -0.75 C 4.609375 -0.25 3.734375 0 2.546875 0 L 0.828125 0 Z M 0.828125 -6.171875 "
           id="path104" />
      </symbol>
    </g>
  </defs>
  <g
     id="g117"
     style="fill:#000000;fill-opacity:1">
    <use
       height="100%"
       width="100%"
       id="use113"
       y="194.05838"
       x="127.27344"
       xlink:href="#glyph0-1" />
    <use
       height="100%"
       width="100%"
       id="use115"
       y="194.05838"
       x="129.77045"
       xlink:href="#glyph0-2" />
  </g>
  <g
     id="g123"
     style="fill:#000000;fill-opacity:1">
    <use
       height="100%"
       width="100%"
       id="use119"
       y="514.05835"
       x="127.27344"
       xlink:href="#glyph0-1" />
    <use
       height="100%"
       width="100%"
       id="use121"
       y="514.05835"
       x="129.77045"
       xlink:href="#glyph0-2" />
  </g>
  <path
     inkscape:connector-curvature="0"
     id="path125"
     d="m 121.10156,121.10156 -70,30 70,30 70,-30 z m 0,0"
     style="fill:#ffde7f;fill-opacity:1;fill-rule:evenodd;stroke:#000000;stroke-width:1;stroke-linecap:butt;stroke-linejoin:miter;stroke-miterlimit:10;stroke-opacity:1" />
  <g
     id="g153"
     style="fill:#000000;fill-opacity:1">
    <use
       height="100%"
       width="100%"
       id="use127"
       y="143.47244"
       x="95.046875"
       xlink:href="#glyph0-3" />
    <use
       height="100%"
       width="100%"
       id="use129"
       y="143.47244"
       x="97.543892"
       xlink:href="#glyph0-4" />
    <use
       height="100%"
       width="100%"
       id="use131"
       y="143.47244"
       x="101.95497"
       xlink:href="#glyph0-5" />
    <use
       height="100%"
       width="100%"
       id="use133"
       y="143.47244"
       x="105.27474"
       xlink:href="#glyph0-6" />
    <use
       height="100%"
       width="100%"
       id="use135"
       y="143.47244"
       x="107.96598"
       xlink:href="#glyph0-7" />
    <use
       height="100%"
       width="100%"
       id="use137"
       y="143.47244"
       x="113.36935"
       xlink:href="#glyph0-2" />
    <use
       height="100%"
       width="100%"
       id="use139"
       y="143.47244"
       x="118.55762"
       xlink:href="#glyph0-8" />
    <use
       height="100%"
       width="100%"
       id="use141"
       y="143.47244"
       x="122.03852"
       xlink:href="#glyph0-5" />
    <use
       height="100%"
       width="100%"
       id="use143"
       y="143.47244"
       x="125.35829"
       xlink:href="#glyph0-9" />
    <use
       height="100%"
       width="100%"
       id="use145"
       y="143.47244"
       x="130.56744"
       xlink:href="#glyph0-6" />
    <use
       height="100%"
       width="100%"
       id="use147"
       y="143.47244"
       x="133.25868"
       xlink:href="#glyph0-10" />
    <use
       height="100%"
       width="100%"
       id="use149"
       y="143.47244"
       x="141.50629"
       xlink:href="#glyph0-11" />
    <use
       height="100%"
       width="100%"
       id="use151"
       y="143.47244"
       x="143.85872"
       xlink:href="#glyph0-5" />
  </g>
  <g
     id="g201"
     style="fill:#000000;fill-opacity:1">
    <use
       height="100%"
       width="100%"
       id="use155"
       y="154.05838"
       x="73.308594"
       xlink:href="#glyph0-12" />
    <use
       height="100%"
       width="100%"
       id="use157"
       y="154.05838"
       x="78.682945"
       xlink:href="#glyph0-5" />
    <use
       height="100%"
       width="100%"
       id="use159"
       y="154.05838"
       x="82.002716"
       xlink:href="#glyph0-9" />
    <use
       height="100%"
       width="100%"
       id="use161"
       y="154.05838"
       x="87.211861"
       xlink:href="#glyph0-11" />
    <use
       height="100%"
       width="100%"
       id="use163"
       y="154.05838"
       x="89.564293"
       xlink:href="#glyph0-13" />
    <use
       height="100%"
       width="100%"
       id="use165"
       y="154.05838"
       x="94.930504"
       xlink:href="#glyph0-6" />
    <use
       height="100%"
       width="100%"
       id="use167"
       y="154.05838"
       x="97.621742"
       xlink:href="#glyph0-14" />
    <use
       height="100%"
       width="100%"
       id="use169"
       y="154.05838"
       x="102.99609"
       xlink:href="#glyph0-8" />
    <use
       height="100%"
       width="100%"
       id="use171"
       y="154.05838"
       x="106.29091"
       xlink:href="#glyph0-15" />
    <use
       height="100%"
       width="100%"
       id="use173"
       y="154.05838"
       x="111.47103"
       xlink:href="#glyph0-4" />
    <use
       height="100%"
       width="100%"
       id="use175"
       y="154.05838"
       x="115.88211"
       xlink:href="#glyph0-4" />
    <use
       height="100%"
       width="100%"
       id="use177"
       y="154.05838"
       x="120.29318"
       xlink:href="#glyph0-9" />
    <use
       height="100%"
       width="100%"
       id="use179"
       y="154.05838"
       x="125.50233"
       xlink:href="#glyph0-8" />
    <use
       height="100%"
       width="100%"
       id="use181"
       y="154.05838"
       x="128.98323"
       xlink:href="#glyph0-6" />
    <use
       height="100%"
       width="100%"
       id="use183"
       y="154.05838"
       x="131.67448"
       xlink:href="#glyph0-2" />
    <use
       height="100%"
       width="100%"
       id="use185"
       y="154.05838"
       x="136.86273"
       xlink:href="#glyph0-16" />
    <use
       height="100%"
       width="100%"
       id="use187"
       y="154.05838"
       x="139.21516"
       xlink:href="#glyph0-4" />
    <use
       height="100%"
       width="100%"
       id="use189"
       y="154.05838"
       x="143.62625"
       xlink:href="#glyph0-6" />
    <use
       height="100%"
       width="100%"
       id="use191"
       y="154.05838"
       x="146.31749"
       xlink:href="#glyph0-7" />
    <use
       height="100%"
       width="100%"
       id="use193"
       y="154.05838"
       x="151.72087"
       xlink:href="#glyph0-2" />
    <use
       height="100%"
       width="100%"
       id="use195"
       y="154.05838"
       x="156.90912"
       xlink:href="#glyph0-8" />
    <use
       height="100%"
       width="100%"
       id="use197"
       y="154.05838"
       x="160.39003"
       xlink:href="#glyph0-5" />
    <use
       height="100%"
       width="100%"
       id="use199"
       y="154.05838"
       x="163.70979"
       xlink:href="#glyph0-9" />
  </g>
  <g
     id="g229"
     style="fill:#000000;fill-opacity:1">
    <use
       height="100%"
       width="100%"
       id="use203"
       y="164.64041"
       x="91.335938"
       xlink:href="#glyph0-8" />
    <use
       height="100%"
       width="100%"
       id="use205"
       y="164.64041"
       x="94.630753"
       xlink:href="#glyph0-9" />
    <use
       height="100%"
       width="100%"
       id="use207"
       y="164.64041"
       x="99.839897"
       xlink:href="#glyph0-17" />
    <use
       height="100%"
       width="100%"
       id="use209"
       y="164.64041"
       x="104.49512"
       xlink:href="#glyph0-18" />
    <use
       height="100%"
       width="100%"
       id="use211"
       y="164.64041"
       x="109.86133"
       xlink:href="#glyph0-5" />
    <use
       height="100%"
       width="100%"
       id="use213"
       y="164.64041"
       x="113.1811"
       xlink:href="#glyph0-4" />
    <use
       height="100%"
       width="100%"
       id="use215"
       y="164.64041"
       x="117.59218"
       xlink:href="#glyph0-6" />
    <use
       height="100%"
       width="100%"
       id="use217"
       y="164.64041"
       x="120.28342"
       xlink:href="#glyph0-19" />
    <use
       height="100%"
       width="100%"
       id="use219"
       y="164.64041"
       x="125.65777"
       xlink:href="#glyph0-2" />
    <use
       height="100%"
       width="100%"
       id="use221"
       y="164.64041"
       x="130.84602"
       xlink:href="#glyph0-20" />
    <use
       height="100%"
       width="100%"
       id="use223"
       y="164.64041"
       x="135.85661"
       xlink:href="#glyph0-21" />
    <use
       height="100%"
       width="100%"
       id="use225"
       y="164.64041"
       x="141.03673"
       xlink:href="#glyph0-13" />
    <use
       height="100%"
       width="100%"
       id="use227"
       y="164.64041"
       x="146.40294"
       xlink:href="#glyph0-22" />
  </g>
  <path
     inkscape:connector-curvature="0"
     id="path231"
     d="m 121.10156,181.10938 v 25.16796"
     style="fill:none;stroke:#000000;stroke-width:1;stroke-linecap:butt;stroke-linejoin:miter;stroke-miterlimit:10;stroke-opacity:1" />
  <path
     inkscape:connector-curvature="0"
     id="path233"
     d="m 121.10156,210.77734 -3,-6 3,1.5 3,-1.5 z m 0,0"
     style="fill:#000000;fill-opacity:1;fill-rule:evenodd;stroke:#000000;stroke-width:1;stroke-linecap:butt;stroke-linejoin:miter;stroke-miterlimit:10;stroke-opacity:1" />
  <path
     inkscape:connector-curvature="0"
     id="path235"
     d="m 191.10938,151.10156 h 89.99218 v 55.17578"
     style="fill:none;stroke:#000000;stroke-width:1;stroke-linecap:butt;stroke-linejoin:miter;stroke-miterlimit:10;stroke-opacity:1" />
  <path
     inkscape:connector-curvature="0"
     id="path237"
     d="m 281.10156,210.77734 -3,-6 3,1.5 3,-1.5 z m 0,0"
     style="fill:#000000;fill-opacity:1;fill-rule:evenodd;stroke:#000000;stroke-width:1;stroke-linecap:butt;stroke-linejoin:miter;stroke-miterlimit:10;stroke-opacity:1" />
  <path
     inkscape:connector-curvature="0"
     id="path239"
     d="m 51.10156,41.10156 h 140 v 40 h -140 z m 0,0"
     style="fill:#a3d4a6;fill-opacity:1;fill-rule:evenodd;stroke:#000000;stroke-width:1;stroke-linecap:butt;stroke-linejoin:miter;stroke-miterlimit:10;stroke-opacity:1" />
  <g
     id="g301"
     style="fill:#000000;fill-opacity:1">
    <use
       height="100%"
       width="100%"
       id="use241"
       y="58.765408"
       x="55.457031"
       xlink:href="#glyph0-23" />
    <use
       height="100%"
       width="100%"
       id="use243"
       y="58.765408"
       x="60.025173"
       xlink:href="#glyph0-9" />
    <use
       height="100%"
       width="100%"
       id="use245"
       y="58.765408"
       x="65.234322"
       xlink:href="#glyph0-14" />
    <use
       height="100%"
       width="100%"
       id="use247"
       y="58.765408"
       x="70.608673"
       xlink:href="#glyph0-9" />
    <use
       height="100%"
       width="100%"
       id="use249"
       y="58.765408"
       x="75.817818"
       xlink:href="#glyph0-6" />
    <use
       height="100%"
       width="100%"
       id="use251"
       y="58.765408"
       x="78.509064"
       xlink:href="#glyph0-12" />
    <use
       height="100%"
       width="100%"
       id="use253"
       y="58.765408"
       x="83.883408"
       xlink:href="#glyph0-5" />
    <use
       height="100%"
       width="100%"
       id="use255"
       y="58.765408"
       x="87.203178"
       xlink:href="#glyph0-9" />
    <use
       height="100%"
       width="100%"
       id="use257"
       y="58.765408"
       x="92.412323"
       xlink:href="#glyph0-11" />
    <use
       height="100%"
       width="100%"
       id="use259"
       y="58.765408"
       x="94.764755"
       xlink:href="#glyph0-13" />
    <use
       height="100%"
       width="100%"
       id="use261"
       y="58.765408"
       x="100.13097"
       xlink:href="#glyph0-6" />
    <use
       height="100%"
       width="100%"
       id="use263"
       y="58.765408"
       x="102.82221"
       xlink:href="#glyph0-10" />
    <use
       height="100%"
       width="100%"
       id="use265"
       y="58.765408"
       x="111.06982"
       xlink:href="#glyph0-11" />
    <use
       height="100%"
       width="100%"
       id="use267"
       y="58.765408"
       x="113.42226"
       xlink:href="#glyph0-5" />
    <use
       height="100%"
       width="100%"
       id="use269"
       y="58.765408"
       x="116.74203"
       xlink:href="#glyph0-6" />
    <use
       height="100%"
       width="100%"
       id="use271"
       y="58.765408"
       x="119.43327"
       xlink:href="#glyph0-4" />
    <use
       height="100%"
       width="100%"
       id="use273"
       y="58.765408"
       x="123.84435"
       xlink:href="#glyph0-17" />
    <use
       height="100%"
       width="100%"
       id="use275"
       y="58.765408"
       x="128.49957"
       xlink:href="#glyph0-18" />
    <use
       height="100%"
       width="100%"
       id="use277"
       y="58.765408"
       x="133.86578"
       xlink:href="#glyph0-24" />
    <use
       height="100%"
       width="100%"
       id="use279"
       y="58.765408"
       x="140.79042"
       xlink:href="#glyph0-2" />
    <use
       height="100%"
       width="100%"
       id="use281"
       y="58.765408"
       x="145.97868"
       xlink:href="#glyph0-8" />
    <use
       height="100%"
       width="100%"
       id="use283"
       y="58.765408"
       x="149.45958"
       xlink:href="#glyph0-25" />
    <use
       height="100%"
       width="100%"
       id="use285"
       y="58.765408"
       x="153.90375"
       xlink:href="#glyph0-9" />
    <use
       height="100%"
       width="100%"
       id="use287"
       y="58.765408"
       x="159.1129"
       xlink:href="#glyph0-8" />
    <use
       height="100%"
       width="100%"
       id="use289"
       y="58.765408"
       x="162.59381"
       xlink:href="#glyph0-6" />
    <use
       height="100%"
       width="100%"
       id="use291"
       y="58.765408"
       x="165.28505"
       xlink:href="#glyph0-12" />
    <use
       height="100%"
       width="100%"
       id="use293"
       y="58.765408"
       x="170.65939"
       xlink:href="#glyph0-9" />
    <use
       height="100%"
       width="100%"
       id="use295"
       y="58.765408"
       x="175.86855"
       xlink:href="#glyph0-11" />
    <use
       height="100%"
       width="100%"
       id="use297"
       y="58.765408"
       x="178.22098"
       xlink:href="#glyph0-5" />
    <use
       height="100%"
       width="100%"
       id="use299"
       y="58.765408"
       x="181.54074"
       xlink:href="#glyph0-9" />
  </g>
  <g
     id="g353"
     style="fill:#000000;fill-opacity:1">
    <use
       height="100%"
       width="100%"
       id="use303"
       y="69.347443"
       x="67.214844"
       xlink:href="#glyph0-21" />
    <use
       height="100%"
       width="100%"
       id="use305"
       y="69.347443"
       x="72.394966"
       xlink:href="#glyph0-26" />
    <use
       height="100%"
       width="100%"
       id="use307"
       y="69.347443"
       x="77.769318"
       xlink:href="#glyph0-9" />
    <use
       height="100%"
       width="100%"
       id="use309"
       y="69.347443"
       x="82.978462"
       xlink:href="#glyph0-13" />
    <use
       height="100%"
       width="100%"
       id="use311"
       y="69.347443"
       x="88.344673"
       xlink:href="#glyph0-6" />
    <use
       height="100%"
       width="100%"
       id="use313"
       y="69.347443"
       x="91.035919"
       xlink:href="#glyph0-2" />
    <use
       height="100%"
       width="100%"
       id="use315"
       y="69.347443"
       x="96.224174"
       xlink:href="#glyph0-27" />
    <use
       height="100%"
       width="100%"
       id="use317"
       y="69.347443"
       x="101.59039"
       xlink:href="#glyph0-28" />
    <use
       height="100%"
       width="100%"
       id="use319"
       y="69.347443"
       x="104.57108"
       xlink:href="#glyph0-6" />
    <use
       height="100%"
       width="100%"
       id="use321"
       y="69.347443"
       x="107.26231"
       xlink:href="#glyph0-7" />
    <use
       height="100%"
       width="100%"
       id="use323"
       y="69.347443"
       x="112.66569"
       xlink:href="#glyph0-2" />
    <use
       height="100%"
       width="100%"
       id="use325"
       y="69.347443"
       x="117.85395"
       xlink:href="#glyph0-8" />
    <use
       height="100%"
       width="100%"
       id="use327"
       y="69.347443"
       x="121.33485"
       xlink:href="#glyph0-5" />
    <use
       height="100%"
       width="100%"
       id="use329"
       y="69.347443"
       x="124.65462"
       xlink:href="#glyph0-9" />
    <use
       height="100%"
       width="100%"
       id="use331"
       y="69.347443"
       x="129.86377"
       xlink:href="#glyph0-6" />
    <use
       height="100%"
       width="100%"
       id="use333"
       y="69.347443"
       x="132.55501"
       xlink:href="#glyph0-14" />
    <use
       height="100%"
       width="100%"
       id="use335"
       y="69.347443"
       x="137.92937"
       xlink:href="#glyph0-2" />
    <use
       height="100%"
       width="100%"
       id="use337"
       y="69.347443"
       x="143.11761"
       xlink:href="#glyph0-13" />
    <use
       height="100%"
       width="100%"
       id="use339"
       y="69.347443"
       x="148.48383"
       xlink:href="#glyph0-25" />
    <use
       height="100%"
       width="100%"
       id="use341"
       y="69.347443"
       x="152.92801"
       xlink:href="#glyph0-6" />
    <use
       height="100%"
       width="100%"
       id="use343"
       y="69.347443"
       x="155.61925"
       xlink:href="#glyph0-16" />
    <use
       height="100%"
       width="100%"
       id="use345"
       y="69.347443"
       x="157.97168"
       xlink:href="#glyph0-11" />
    <use
       height="100%"
       width="100%"
       id="use347"
       y="69.347443"
       x="160.32411"
       xlink:href="#glyph0-13" />
    <use
       height="100%"
       width="100%"
       id="use349"
       y="69.347443"
       x="165.69032"
       xlink:href="#glyph0-29" />
    <use
       height="100%"
       width="100%"
       id="use351"
       y="69.347443"
       x="170.59348"
       xlink:href="#glyph0-4" />
  </g>
  <path
     inkscape:connector-curvature="0"
     id="path355"
     d="m 121.10156,81.19532 v 35.1875"
     style="fill:none;stroke:#000000;stroke-width:1;stroke-linecap:butt;stroke-linejoin:miter;stroke-miterlimit:10;stroke-opacity:1" />
  <path
     inkscape:connector-curvature="0"
     id="path357"
     d="m 121.10156,120.88282 -3,-6 3,1.5 3,-1.5 z m 0,0"
     style="fill:#000000;fill-opacity:1;fill-rule:evenodd;stroke:#000000;stroke-width:1;stroke-linecap:butt;stroke-linejoin:miter;stroke-miterlimit:10;stroke-opacity:1" />
  <path
     inkscape:connector-curvature="0"
     id="path359"
     d="m 101.10156,1.10156 c -5.52344,0 -10,4.47656 -10,10 0,5.51954 4.47656,10 10,10 h 40 c 5.51954,0 10,-4.48046 10,-10 0,-5.52344 -4.48046,-10 -10,-10 z m 0,0"
     style="fill:#8fcaf8;fill-opacity:1;fill-rule:evenodd;stroke:#000000;stroke-width:1;stroke-linecap:butt;stroke-linejoin:round;stroke-miterlimit:10;stroke-opacity:1" />
  <g
     id="g377"
     style="fill:#000000;fill-opacity:1">
    <use
       height="100%"
       width="100%"
       id="use361"
       y="14.058377"
       x="104.40234"
       xlink:href="#glyph0-12" />
    <use
       height="100%"
       width="100%"
       id="use363"
       y="14.058377"
       x="109.7767"
       xlink:href="#glyph0-21" />
    <use
       height="100%"
       width="100%"
       id="use365"
       y="14.058377"
       x="114.95682"
       xlink:href="#glyph0-8" />
    <use
       height="100%"
       width="100%"
       id="use367"
       y="14.058377"
       x="118.43771"
       xlink:href="#glyph0-5" />
    <use
       height="100%"
       width="100%"
       id="use369"
       y="14.058377"
       x="121.75748"
       xlink:href="#glyph0-11" />
    <use
       height="100%"
       width="100%"
       id="use371"
       y="14.058377"
       x="124.10992"
       xlink:href="#glyph0-9" />
    <use
       height="100%"
       width="100%"
       id="use373"
       y="14.058377"
       x="129.31906"
       xlink:href="#glyph0-8" />
    <use
       height="100%"
       width="100%"
       id="use375"
       y="14.058377"
       x="132.61388"
       xlink:href="#glyph0-9" />
  </g>
  <path
     inkscape:connector-curvature="0"
     id="path379"
     d="M 121.10156,21.1836 V 36.35546"
     style="fill:none;stroke:#000000;stroke-width:1;stroke-linecap:butt;stroke-linejoin:round;stroke-miterlimit:10;stroke-opacity:1" />
  <path
     inkscape:connector-curvature="0"
     id="path381"
     d="m 121.10156,40.85546 -3,-6 3,1.5 3,-1.5 z m 0,0"
     style="fill:#000000;fill-opacity:1;fill-rule:evenodd;stroke:#000000;stroke-width:1;stroke-linecap:butt;stroke-linejoin:miter;stroke-miterlimit:10;stroke-opacity:1" />
  <path
     inkscape:connector-curvature="0"
     id="path383"
     d="m 51.10156,211.10156 h 140 v 40 h -140 z m 0,0"
     style="fill:#a3d4a6;fill-opacity:1;fill-rule:evenodd;stroke:#000000;stroke-width:1;stroke-linecap:butt;stroke-linejoin:miter;stroke-miterlimit:10;stroke-opacity:1" />
  <g
     id="g431"
     style="fill:#000000;fill-opacity:1">
    <use
       height="100%"
       width="100%"
       id="use385"
       y="228.76541"
       x="71.023438"
       xlink:href="#glyph0-30" />
    <use
       height="100%"
       width="100%"
       id="use387"
       y="228.76541"
       x="74.79351"
       xlink:href="#glyph0-2" />
    <use
       height="100%"
       width="100%"
       id="use389"
       y="228.76541"
       x="79.981773"
       xlink:href="#glyph0-27" />
    <use
       height="100%"
       width="100%"
       id="use391"
       y="228.76541"
       x="85.347984"
       xlink:href="#glyph0-4" />
    <use
       height="100%"
       width="100%"
       id="use393"
       y="228.76541"
       x="89.759064"
       xlink:href="#glyph0-17" />
    <use
       height="100%"
       width="100%"
       id="use395"
       y="228.76541"
       x="94.414284"
       xlink:href="#glyph0-18" />
    <use
       height="100%"
       width="100%"
       id="use397"
       y="228.76541"
       x="99.780487"
       xlink:href="#glyph0-9" />
    <use
       height="100%"
       width="100%"
       id="use399"
       y="228.76541"
       x="104.98964"
       xlink:href="#glyph0-6" />
    <use
       height="100%"
       width="100%"
       id="use401"
       y="228.76541"
       x="107.68088"
       xlink:href="#glyph0-7" />
    <use
       height="100%"
       width="100%"
       id="use403"
       y="228.76541"
       x="113.08426"
       xlink:href="#glyph0-2" />
    <use
       height="100%"
       width="100%"
       id="use405"
       y="228.76541"
       x="118.27251"
       xlink:href="#glyph0-8" />
    <use
       height="100%"
       width="100%"
       id="use407"
       y="228.76541"
       x="121.75342"
       xlink:href="#glyph0-5" />
    <use
       height="100%"
       width="100%"
       id="use409"
       y="228.76541"
       x="125.07319"
       xlink:href="#glyph0-9" />
    <use
       height="100%"
       width="100%"
       id="use411"
       y="228.76541"
       x="130.28233"
       xlink:href="#glyph0-6" />
    <use
       height="100%"
       width="100%"
       id="use413"
       y="228.76541"
       x="132.97357"
       xlink:href="#glyph0-10" />
    <use
       height="100%"
       width="100%"
       id="use415"
       y="228.76541"
       x="141.22119"
       xlink:href="#glyph0-11" />
    <use
       height="100%"
       width="100%"
       id="use417"
       y="228.76541"
       x="143.57362"
       xlink:href="#glyph0-5" />
    <use
       height="100%"
       width="100%"
       id="use419"
       y="228.76541"
       x="146.89339"
       xlink:href="#glyph0-6" />
    <use
       height="100%"
       width="100%"
       id="use421"
       y="228.76541"
       x="149.58464"
       xlink:href="#glyph0-12" />
    <use
       height="100%"
       width="100%"
       id="use423"
       y="228.76541"
       x="154.95898"
       xlink:href="#glyph0-5" />
    <use
       height="100%"
       width="100%"
       id="use425"
       y="228.76541"
       x="158.27875"
       xlink:href="#glyph0-9" />
    <use
       height="100%"
       width="100%"
       id="use427"
       y="228.76541"
       x="163.4879"
       xlink:href="#glyph0-11" />
    <use
       height="100%"
       width="100%"
       id="use429"
       y="228.76541"
       x="165.84033"
       xlink:href="#glyph0-13" />
  </g>
  <g
     id="g477"
     style="fill:#000000;fill-opacity:1">
    <use
       height="100%"
       width="100%"
       id="use433"
       y="239.34744"
       x="72.625"
       xlink:href="#glyph0-10" />
    <use
       height="100%"
       width="100%"
       id="use435"
       y="239.34744"
       x="80.872612"
       xlink:href="#glyph0-11" />
    <use
       height="100%"
       width="100%"
       id="use437"
       y="239.34744"
       x="83.225044"
       xlink:href="#glyph0-5" />
    <use
       height="100%"
       width="100%"
       id="use439"
       y="239.34744"
       x="86.544815"
       xlink:href="#glyph0-6" />
    <use
       height="100%"
       width="100%"
       id="use441"
       y="239.34744"
       x="89.236053"
       xlink:href="#glyph0-7" />
    <use
       height="100%"
       width="100%"
       id="use443"
       y="239.34744"
       x="94.639435"
       xlink:href="#glyph0-2" />
    <use
       height="100%"
       width="100%"
       id="use445"
       y="239.34744"
       x="99.82769"
       xlink:href="#glyph0-8" />
    <use
       height="100%"
       width="100%"
       id="use447"
       y="239.34744"
       x="103.30859"
       xlink:href="#glyph0-5" />
    <use
       height="100%"
       width="100%"
       id="use449"
       y="239.34744"
       x="106.62836"
       xlink:href="#glyph0-9" />
    <use
       height="100%"
       width="100%"
       id="use451"
       y="239.34744"
       x="111.83751"
       xlink:href="#glyph0-6" />
    <use
       height="100%"
       width="100%"
       id="use453"
       y="239.34744"
       x="114.52876"
       xlink:href="#glyph0-8" />
    <use
       height="100%"
       width="100%"
       id="use455"
       y="239.34744"
       x="117.82357"
       xlink:href="#glyph0-9" />
    <use
       height="100%"
       width="100%"
       id="use457"
       y="239.34744"
       x="123.03271"
       xlink:href="#glyph0-17" />
    <use
       height="100%"
       width="100%"
       id="use459"
       y="239.34744"
       x="127.68793"
       xlink:href="#glyph0-18" />
    <use
       height="100%"
       width="100%"
       id="use461"
       y="239.34744"
       x="133.05414"
       xlink:href="#glyph0-5" />
    <use
       height="100%"
       width="100%"
       id="use463"
       y="239.34744"
       x="136.37392"
       xlink:href="#glyph0-4" />
    <use
       height="100%"
       width="100%"
       id="use465"
       y="239.34744"
       x="140.78499"
       xlink:href="#glyph0-6" />
    <use
       height="100%"
       width="100%"
       id="use467"
       y="239.34744"
       x="143.47624"
       xlink:href="#glyph0-19" />
    <use
       height="100%"
       width="100%"
       id="use469"
       y="239.34744"
       x="148.85059"
       xlink:href="#glyph0-2" />
    <use
       height="100%"
       width="100%"
       id="use471"
       y="239.34744"
       x="154.03885"
       xlink:href="#glyph0-20" />
    <use
       height="100%"
       width="100%"
       id="use473"
       y="239.34744"
       x="159.04942"
       xlink:href="#glyph0-21" />
    <use
       height="100%"
       width="100%"
       id="use475"
       y="239.34744"
       x="164.22955"
       xlink:href="#glyph0-13" />
  </g>
  <path
     inkscape:connector-curvature="0"
     id="path479"
     d="m 121.10156,351.10156 -70,30 70,30 70,-30 z m 0,0"
     style="fill:#ffde7f;fill-opacity:1;fill-rule:evenodd;stroke:#000000;stroke-width:1;stroke-linecap:butt;stroke-linejoin:miter;stroke-miterlimit:10;stroke-opacity:1" />
  <g
     id="g507"
     style="fill:#000000;fill-opacity:1">
    <use
       height="100%"
       width="100%"
       id="use481"
       y="378.76541"
       x="95.730469"
       xlink:href="#glyph0-3" />
    <use
       height="100%"
       width="100%"
       id="use483"
       y="378.76541"
       x="98.227486"
       xlink:href="#glyph0-4" />
    <use
       height="100%"
       width="100%"
       id="use485"
       y="378.76541"
       x="102.63857"
       xlink:href="#glyph0-5" />
    <use
       height="100%"
       width="100%"
       id="use487"
       y="378.76541"
       x="105.95834"
       xlink:href="#glyph0-6" />
    <use
       height="100%"
       width="100%"
       id="use489"
       y="378.76541"
       x="108.64957"
       xlink:href="#glyph0-12" />
    <use
       height="100%"
       width="100%"
       id="use491"
       y="378.76541"
       x="114.02393"
       xlink:href="#glyph0-5" />
    <use
       height="100%"
       width="100%"
       id="use493"
       y="378.76541"
       x="117.3437"
       xlink:href="#glyph0-9" />
    <use
       height="100%"
       width="100%"
       id="use495"
       y="378.76541"
       x="122.55284"
       xlink:href="#glyph0-11" />
    <use
       height="100%"
       width="100%"
       id="use497"
       y="378.76541"
       x="124.90527"
       xlink:href="#glyph0-13" />
    <use
       height="100%"
       width="100%"
       id="use499"
       y="378.76541"
       x="130.27148"
       xlink:href="#glyph0-6" />
    <use
       height="100%"
       width="100%"
       id="use501"
       y="378.76541"
       x="132.96272"
       xlink:href="#glyph0-2" />
    <use
       height="100%"
       width="100%"
       id="use503"
       y="378.76541"
       x="138.15099"
       xlink:href="#glyph0-27" />
    <use
       height="100%"
       width="100%"
       id="use505"
       y="378.76541"
       x="143.5172"
       xlink:href="#glyph0-28" />
  </g>
  <g
     id="g545"
     style="fill:#000000;fill-opacity:1">
    <use
       height="100%"
       width="100%"
       id="use509"
       y="389.34744"
       x="81.550781"
       xlink:href="#glyph0-7" />
    <use
       height="100%"
       width="100%"
       id="use511"
       y="389.34744"
       x="86.954155"
       xlink:href="#glyph0-2" />
    <use
       height="100%"
       width="100%"
       id="use513"
       y="389.34744"
       x="92.142418"
       xlink:href="#glyph0-8" />
    <use
       height="100%"
       width="100%"
       id="use515"
       y="389.34744"
       x="95.623322"
       xlink:href="#glyph0-5" />
    <use
       height="100%"
       width="100%"
       id="use517"
       y="389.34744"
       x="98.943085"
       xlink:href="#glyph0-9" />
    <use
       height="100%"
       width="100%"
       id="use519"
       y="389.34744"
       x="104.15224"
       xlink:href="#glyph0-6" />
    <use
       height="100%"
       width="100%"
       id="use521"
       y="389.34744"
       x="106.84348"
       xlink:href="#glyph0-14" />
    <use
       height="100%"
       width="100%"
       id="use523"
       y="389.34744"
       x="112.21783"
       xlink:href="#glyph0-2" />
    <use
       height="100%"
       width="100%"
       id="use525"
       y="389.34744"
       x="117.40609"
       xlink:href="#glyph0-13" />
    <use
       height="100%"
       width="100%"
       id="use527"
       y="389.34744"
       x="122.7723"
       xlink:href="#glyph0-25" />
    <use
       height="100%"
       width="100%"
       id="use529"
       y="389.34744"
       x="127.21647"
       xlink:href="#glyph0-6" />
    <use
       height="100%"
       width="100%"
       id="use531"
       y="389.34744"
       x="129.90771"
       xlink:href="#glyph0-8" />
    <use
       height="100%"
       width="100%"
       id="use533"
       y="389.34744"
       x="133.20253"
       xlink:href="#glyph0-9" />
    <use
       height="100%"
       width="100%"
       id="use535"
       y="389.34744"
       x="138.41168"
       xlink:href="#glyph0-17" />
    <use
       height="100%"
       width="100%"
       id="use537"
       y="389.34744"
       x="143.06689"
       xlink:href="#glyph0-18" />
    <use
       height="100%"
       width="100%"
       id="use539"
       y="389.34744"
       x="148.43311"
       xlink:href="#glyph0-5" />
    <use
       height="100%"
       width="100%"
       id="use541"
       y="389.34744"
       x="151.75287"
       xlink:href="#glyph0-4" />
    <use
       height="100%"
       width="100%"
       id="use543"
       y="389.34744"
       x="156.16396"
       xlink:href="#glyph0-22" />
  </g>
  <g
     id="g551"
     style="fill:#000000;fill-opacity:1">
    <use
       height="100%"
       width="100%"
       id="use547"
       y="424.05838"
       x="127.27344"
       xlink:href="#glyph0-1" />
    <use
       height="100%"
       width="100%"
       id="use549"
       y="424.05838"
       x="129.77045"
       xlink:href="#glyph0-2" />
  </g>
  <path
     inkscape:connector-curvature="0"
     id="path553"
     d="M 51.1289,381.10156 H 21.10156 v -280 l 95.27344,0.0468"
     style="fill:none;stroke:#000000;stroke-width:1;stroke-linecap:butt;stroke-linejoin:miter;stroke-miterlimit:10;stroke-opacity:1" />
  <path
     inkscape:connector-curvature="0"
     id="path555"
     d="m 120.875,101.15234 -6,2.9961 1.5,-3 -1.4961,-3 z m 0,0"
     style="fill:#000000;fill-opacity:1;fill-rule:evenodd;stroke:#000000;stroke-width:1;stroke-linecap:butt;stroke-linejoin:miter;stroke-miterlimit:10;stroke-opacity:1" />
  <path
     inkscape:connector-curvature="0"
     id="path557"
     d="m 211.10156,211.10156 h 140 v 40 h -140 z m 0,0"
     style="fill:#a3d4a6;fill-opacity:1;fill-rule:evenodd;stroke:#000000;stroke-width:1;stroke-linecap:butt;stroke-linejoin:miter;stroke-miterlimit:10;stroke-opacity:1" />
  <g
     id="g607"
     style="fill:#000000;fill-opacity:1">
    <use
       height="100%"
       width="100%"
       id="use559"
       y="228.76541"
       x="227.19531"
       xlink:href="#glyph0-31" />
    <use
       height="100%"
       width="100%"
       id="use561"
       y="228.76541"
       x="232.32986"
       xlink:href="#glyph0-9" />
    <use
       height="100%"
       width="100%"
       id="use563"
       y="228.76541"
       x="237.539"
       xlink:href="#glyph0-8" />
    <use
       height="100%"
       width="100%"
       id="use565"
       y="228.76541"
       x="241.01991"
       xlink:href="#glyph0-4" />
    <use
       height="100%"
       width="100%"
       id="use567"
       y="228.76541"
       x="245.43098"
       xlink:href="#glyph0-17" />
    <use
       height="100%"
       width="100%"
       id="use569"
       y="228.76541"
       x="250.08621"
       xlink:href="#glyph0-18" />
    <use
       height="100%"
       width="100%"
       id="use571"
       y="228.76541"
       x="255.45242"
       xlink:href="#glyph0-11" />
    <use
       height="100%"
       width="100%"
       id="use573"
       y="228.76541"
       x="257.80484"
       xlink:href="#glyph0-9" />
    <use
       height="100%"
       width="100%"
       id="use575"
       y="228.76541"
       x="263.01401"
       xlink:href="#glyph0-26" />
    <use
       height="100%"
       width="100%"
       id="use577"
       y="228.76541"
       x="268.38834"
       xlink:href="#glyph0-9" />
    <use
       height="100%"
       width="100%"
       id="use579"
       y="228.76541"
       x="273.5975"
       xlink:href="#glyph0-6" />
    <use
       height="100%"
       width="100%"
       id="use581"
       y="228.76541"
       x="276.28873"
       xlink:href="#glyph0-12" />
    <use
       height="100%"
       width="100%"
       id="use583"
       y="228.76541"
       x="281.66309"
       xlink:href="#glyph0-5" />
    <use
       height="100%"
       width="100%"
       id="use585"
       y="228.76541"
       x="284.98285"
       xlink:href="#glyph0-9" />
    <use
       height="100%"
       width="100%"
       id="use587"
       y="228.76541"
       x="290.19202"
       xlink:href="#glyph0-11" />
    <use
       height="100%"
       width="100%"
       id="use589"
       y="228.76541"
       x="292.54443"
       xlink:href="#glyph0-13" />
    <use
       height="100%"
       width="100%"
       id="use591"
       y="228.76541"
       x="297.91064"
       xlink:href="#glyph0-6" />
    <use
       height="100%"
       width="100%"
       id="use593"
       y="228.76541"
       x="300.6019"
       xlink:href="#glyph0-27" />
    <use
       height="100%"
       width="100%"
       id="use595"
       y="228.76541"
       x="305.96811"
       xlink:href="#glyph0-10" />
    <use
       height="100%"
       width="100%"
       id="use597"
       y="228.76541"
       x="314.2157"
       xlink:href="#glyph0-6" />
    <use
       height="100%"
       width="100%"
       id="use599"
       y="228.76541"
       x="316.90695"
       xlink:href="#glyph0-9" />
    <use
       height="100%"
       width="100%"
       id="use601"
       y="228.76541"
       x="322.11609"
       xlink:href="#glyph0-11" />
    <use
       height="100%"
       width="100%"
       id="use603"
       y="228.76541"
       x="324.46854"
       xlink:href="#glyph0-13" />
    <use
       height="100%"
       width="100%"
       id="use605"
       y="228.76541"
       x="329.83475"
       xlink:href="#glyph0-9" />
  </g>
  <g
     id="g643"
     style="fill:#000000;fill-opacity:1">
    <use
       height="100%"
       width="100%"
       id="use609"
       y="239.34744"
       x="243.69922"
       xlink:href="#glyph0-7" />
    <use
       height="100%"
       width="100%"
       id="use611"
       y="239.34744"
       x="249.1026"
       xlink:href="#glyph0-2" />
    <use
       height="100%"
       width="100%"
       id="use613"
       y="239.34744"
       x="254.29085"
       xlink:href="#glyph0-8" />
    <use
       height="100%"
       width="100%"
       id="use615"
       y="239.34744"
       x="257.77176"
       xlink:href="#glyph0-5" />
    <use
       height="100%"
       width="100%"
       id="use617"
       y="239.34744"
       x="261.09152"
       xlink:href="#glyph0-9" />
    <use
       height="100%"
       width="100%"
       id="use619"
       y="239.34744"
       x="266.30066"
       xlink:href="#glyph0-6" />
    <use
       height="100%"
       width="100%"
       id="use621"
       y="239.34744"
       x="268.99191"
       xlink:href="#glyph0-13" />
    <use
       height="100%"
       width="100%"
       id="use623"
       y="239.34744"
       x="274.35812"
       xlink:href="#glyph0-2" />
    <use
       height="100%"
       width="100%"
       id="use625"
       y="239.34744"
       x="279.54639"
       xlink:href="#glyph0-17" />
    <use
       height="100%"
       width="100%"
       id="use627"
       y="239.34744"
       x="284.2016"
       xlink:href="#glyph0-18" />
    <use
       height="100%"
       width="100%"
       id="use629"
       y="239.34744"
       x="289.56781"
       xlink:href="#glyph0-6" />
    <use
       height="100%"
       width="100%"
       id="use631"
       y="239.34744"
       x="292.25906"
       xlink:href="#glyph0-8" />
    <use
       height="100%"
       width="100%"
       id="use633"
       y="239.34744"
       x="295.55386"
       xlink:href="#glyph0-9" />
    <use
       height="100%"
       width="100%"
       id="use635"
       y="239.34744"
       x="300.76303"
       xlink:href="#glyph0-17" />
    <use
       height="100%"
       width="100%"
       id="use637"
       y="239.34744"
       x="305.41824"
       xlink:href="#glyph0-18" />
    <use
       height="100%"
       width="100%"
       id="use639"
       y="239.34744"
       x="310.78445"
       xlink:href="#glyph0-5" />
    <use
       height="100%"
       width="100%"
       id="use641"
       y="239.34744"
       x="314.10422"
       xlink:href="#glyph0-4" />
  </g>
  <path
     inkscape:connector-curvature="0"
     id="path645"
     d="m 121.10156,441.10156 -70,30 70,30 70,-30 z m 0,0"
     style="fill:#ffde7f;fill-opacity:1;fill-rule:evenodd;stroke:#000000;stroke-width:1;stroke-linecap:butt;stroke-linejoin:miter;stroke-miterlimit:10;stroke-opacity:1" />
  <g
     id="g683"
     style="fill:#000000;fill-opacity:1">
    <use
       height="100%"
       width="100%"
       id="use647"
       y="468.76541"
       x="82.742188"
       xlink:href="#glyph0-3" />
    <use
       height="100%"
       width="100%"
       id="use649"
       y="468.76541"
       x="85.239204"
       xlink:href="#glyph0-4" />
    <use
       height="100%"
       width="100%"
       id="use651"
       y="468.76541"
       x="89.650284"
       xlink:href="#glyph0-5" />
    <use
       height="100%"
       width="100%"
       id="use653"
       y="468.76541"
       x="92.970055"
       xlink:href="#glyph0-6" />
    <use
       height="100%"
       width="100%"
       id="use655"
       y="468.76541"
       x="95.661293"
       xlink:href="#glyph0-4" />
    <use
       height="100%"
       width="100%"
       id="use657"
       y="468.76541"
       x="100.07237"
       xlink:href="#glyph0-17" />
    <use
       height="100%"
       width="100%"
       id="use659"
       y="468.76541"
       x="104.72759"
       xlink:href="#glyph0-18" />
    <use
       height="100%"
       width="100%"
       id="use661"
       y="468.76541"
       x="110.0938"
       xlink:href="#glyph0-24" />
    <use
       height="100%"
       width="100%"
       id="use663"
       y="468.76541"
       x="117.01845"
       xlink:href="#glyph0-2" />
    <use
       height="100%"
       width="100%"
       id="use665"
       y="468.76541"
       x="122.2067"
       xlink:href="#glyph0-8" />
    <use
       height="100%"
       width="100%"
       id="use667"
       y="468.76541"
       x="125.68761"
       xlink:href="#glyph0-25" />
    <use
       height="100%"
       width="100%"
       id="use669"
       y="468.76541"
       x="130.13177"
       xlink:href="#glyph0-9" />
    <use
       height="100%"
       width="100%"
       id="use671"
       y="468.76541"
       x="135.34093"
       xlink:href="#glyph0-6" />
    <use
       height="100%"
       width="100%"
       id="use673"
       y="468.76541"
       x="138.03217"
       xlink:href="#glyph0-12" />
    <use
       height="100%"
       width="100%"
       id="use675"
       y="468.76541"
       x="143.40652"
       xlink:href="#glyph0-9" />
    <use
       height="100%"
       width="100%"
       id="use677"
       y="468.76541"
       x="148.61566"
       xlink:href="#glyph0-11" />
    <use
       height="100%"
       width="100%"
       id="use679"
       y="468.76541"
       x="150.96809"
       xlink:href="#glyph0-5" />
    <use
       height="100%"
       width="100%"
       id="use681"
       y="468.76541"
       x="154.28787"
       xlink:href="#glyph0-9" />
  </g>
  <g
     id="g717"
     style="fill:#000000;fill-opacity:1">
    <use
       height="100%"
       width="100%"
       id="use685"
       y="479.34744"
       x="85.085938"
       xlink:href="#glyph0-19" />
    <use
       height="100%"
       width="100%"
       id="use687"
       y="479.34744"
       x="90.460289"
       xlink:href="#glyph0-9" />
    <use
       height="100%"
       width="100%"
       id="use689"
       y="479.34744"
       x="95.669434"
       xlink:href="#glyph0-4" />
    <use
       height="100%"
       width="100%"
       id="use691"
       y="479.34744"
       x="100.08051"
       xlink:href="#glyph0-6" />
    <use
       height="100%"
       width="100%"
       id="use693"
       y="479.34744"
       x="102.77176"
       xlink:href="#glyph0-12" />
    <use
       height="100%"
       width="100%"
       id="use695"
       y="479.34744"
       x="108.1461"
       xlink:href="#glyph0-5" />
    <use
       height="100%"
       width="100%"
       id="use697"
       y="479.34744"
       x="111.46587"
       xlink:href="#glyph0-9" />
    <use
       height="100%"
       width="100%"
       id="use699"
       y="479.34744"
       x="116.67502"
       xlink:href="#glyph0-11" />
    <use
       height="100%"
       width="100%"
       id="use701"
       y="479.34744"
       x="119.02745"
       xlink:href="#glyph0-13" />
    <use
       height="100%"
       width="100%"
       id="use703"
       y="479.34744"
       x="124.39366"
       xlink:href="#glyph0-4" />
    <use
       height="100%"
       width="100%"
       id="use705"
       y="479.34744"
       x="128.80475"
       xlink:href="#glyph0-6" />
    <use
       height="100%"
       width="100%"
       id="use707"
       y="479.34744"
       x="131.49599"
       xlink:href="#glyph0-21" />
    <use
       height="100%"
       width="100%"
       id="use709"
       y="479.34744"
       x="136.6761"
       xlink:href="#glyph0-26" />
    <use
       height="100%"
       width="100%"
       id="use711"
       y="479.34744"
       x="142.05046"
       xlink:href="#glyph0-9" />
    <use
       height="100%"
       width="100%"
       id="use713"
       y="479.34744"
       x="147.2596"
       xlink:href="#glyph0-13" />
    <use
       height="100%"
       width="100%"
       id="use715"
       y="479.34744"
       x="152.62581"
       xlink:href="#glyph0-22" />
  </g>
  <path
     inkscape:connector-curvature="0"
     id="path719"
     d="M 51.10938,471.10156 H 1.10156 v -410 h 45.1836"
     style="fill:none;stroke:#000000;stroke-width:1;stroke-linecap:butt;stroke-linejoin:miter;stroke-miterlimit:10;stroke-opacity:1" />
  <path
     inkscape:connector-curvature="0"
     id="path721"
     d="m 50.78516,61.10156 -6,3 1.5,-3 -1.5,-3 z m 0,0"
     style="fill:#000000;fill-opacity:1;fill-rule:evenodd;stroke:#000000;stroke-width:1;stroke-linecap:butt;stroke-linejoin:miter;stroke-miterlimit:10;stroke-opacity:1" />
  <g
     id="g731"
     style="fill:#000000;fill-opacity:1">
    <use
       height="100%"
       width="100%"
       id="use723"
       y="144.05838"
       x="191.47266"
       xlink:href="#glyph0-32" />
    <use
       height="100%"
       width="100%"
       id="use725"
       y="144.05838"
       x="197.80621"
       xlink:href="#glyph0-9" />
    <use
       height="100%"
       width="100%"
       id="use727"
       y="144.05838"
       x="203.01535"
       xlink:href="#glyph0-11" />
    <use
       height="100%"
       width="100%"
       id="use729"
       y="144.05838"
       x="205.36778"
       xlink:href="#glyph0-13" />
  </g>
  <path
     inkscape:connector-curvature="0"
     id="path733"
     d="m 281.10156,251.1211 v 79.98046 l -155.27734,0.046"
     style="fill:none;stroke:#000000;stroke-width:1;stroke-linecap:butt;stroke-linejoin:miter;stroke-miterlimit:10;stroke-opacity:1" />
  <path
     inkscape:connector-curvature="0"
     id="path735"
     d="m 121.32422,331.14844 6,-3 -1.5,3 1.5,3 z m 0,0"
     style="fill:#000000;fill-opacity:1;fill-rule:evenodd;stroke:#000000;stroke-width:1;stroke-linecap:butt;stroke-linejoin:miter;stroke-miterlimit:10;stroke-opacity:1" />
  <path
     inkscape:connector-curvature="0"
     id="path737"
     d="m 99.63672,531.10156 c -4.71484,0 -8.53516,3.82032 -8.53516,8.53516 0,4.71094 3.82032,8.53516 8.53516,8.53516 h 40 c 4.71094,0 8.53516,-3.82422 8.53516,-8.53516 0,-4.71484 -3.82422,-8.53516 -8.53516,-8.53516 z m 0,0"
     style="fill:#8fcaf8;fill-opacity:1;fill-rule:evenodd;stroke:#000000;stroke-width:1;stroke-linecap:butt;stroke-linejoin:round;stroke-miterlimit:10;stroke-opacity:1" />
  <g
     id="g747"
     style="fill:#000000;fill-opacity:1">
    <use
       height="100%"
       width="100%"
       id="use739"
       y="542.59351"
       x="108.99219"
       xlink:href="#glyph0-33" />
    <use
       height="100%"
       width="100%"
       id="use741"
       y="542.59351"
       x="114.34185"
       xlink:href="#glyph0-13" />
    <use
       height="100%"
       width="100%"
       id="use743"
       y="542.59351"
       x="119.70806"
       xlink:href="#glyph0-19" />
    <use
       height="100%"
       width="100%"
       id="use745"
       y="542.59351"
       x="125.08241"
       xlink:href="#glyph0-9" />
  </g>
  <path
     inkscape:connector-curvature="0"
     id="path749"
     d="M 121.10156,251.19922 V 266.375"
     style="fill:none;stroke:#000000;stroke-width:1;stroke-linecap:butt;stroke-linejoin:round;stroke-miterlimit:10;stroke-opacity:1" />
  <path
     inkscape:connector-curvature="0"
     id="path751"
     d="m 121.10156,270.875 -3,-6 3,1.5 3,-1.5 z m 0,0"
     style="fill:#000000;fill-opacity:1;fill-rule:evenodd;stroke:#000000;stroke-width:1;stroke-linecap:butt;stroke-linejoin:miter;stroke-miterlimit:10;stroke-opacity:1" />
  <g
     id="g761"
     style="fill:#000000;fill-opacity:1">
    <use
       height="100%"
       width="100%"
       id="use753"
       y="464.05838"
       x="31.472656"
       xlink:href="#glyph0-32" />
    <use
       height="100%"
       width="100%"
       id="use755"
       y="464.05838"
       x="37.806206"
       xlink:href="#glyph0-9" />
    <use
       height="100%"
       width="100%"
       id="use757"
       y="464.05838"
       x="43.015354"
       xlink:href="#glyph0-11" />
    <use
       height="100%"
       width="100%"
       id="use759"
       y="464.05838"
       x="45.367783"
       xlink:href="#glyph0-13" />
  </g>
  <path
     inkscape:connector-curvature="0"
     id="path763"
     d="m 51.10156,271.10156 h 140 v 40 h -140 z m 0,0"
     style="fill:#a3d4a6;fill-opacity:1;fill-rule:evenodd;stroke:#000000;stroke-width:1;stroke-linecap:butt;stroke-linejoin:miter;stroke-miterlimit:10;stroke-opacity:1" />
  <g
     id="g795"
     style="fill:#000000;fill-opacity:1">
    <use
       height="100%"
       width="100%"
       id="use765"
       y="288.76541"
       x="88.035156"
       xlink:href="#glyph0-34" />
    <use
       height="100%"
       width="100%"
       id="use767"
       y="288.76541"
       x="94.554794"
       xlink:href="#glyph0-8" />
    <use
       height="100%"
       width="100%"
       id="use769"
       y="288.76541"
       x="97.849609"
       xlink:href="#glyph0-9" />
    <use
       height="100%"
       width="100%"
       id="use771"
       y="288.76541"
       x="103.05875"
       xlink:href="#glyph0-18" />
    <use
       height="100%"
       width="100%"
       id="use773"
       y="288.76541"
       x="108.42496"
       xlink:href="#glyph0-9" />
    <use
       height="100%"
       width="100%"
       id="use775"
       y="288.76541"
       x="113.63412"
       xlink:href="#glyph0-6" />
    <use
       height="100%"
       width="100%"
       id="use777"
       y="288.76541"
       x="116.32536"
       xlink:href="#glyph0-12" />
    <use
       height="100%"
       width="100%"
       id="use779"
       y="288.76541"
       x="121.69971"
       xlink:href="#glyph0-5" />
    <use
       height="100%"
       width="100%"
       id="use781"
       y="288.76541"
       x="125.01948"
       xlink:href="#glyph0-9" />
    <use
       height="100%"
       width="100%"
       id="use783"
       y="288.76541"
       x="130.22862"
       xlink:href="#glyph0-11" />
    <use
       height="100%"
       width="100%"
       id="use785"
       y="288.76541"
       x="132.58105"
       xlink:href="#glyph0-13" />
    <use
       height="100%"
       width="100%"
       id="use787"
       y="288.76541"
       x="137.94727"
       xlink:href="#glyph0-6" />
    <use
       height="100%"
       width="100%"
       id="use789"
       y="288.76541"
       x="140.6385"
       xlink:href="#glyph0-2" />
    <use
       height="100%"
       width="100%"
       id="use791"
       y="288.76541"
       x="145.82677"
       xlink:href="#glyph0-27" />
    <use
       height="100%"
       width="100%"
       id="use793"
       y="288.76541"
       x="151.19298"
       xlink:href="#glyph0-28" />
  </g>
  <g
     id="g819"
     style="fill:#000000;fill-opacity:1">
    <use
       height="100%"
       width="100%"
       id="use797"
       y="299.34744"
       x="97.273438"
       xlink:href="#glyph0-14" />
    <use
       height="100%"
       width="100%"
       id="use799"
       y="299.34744"
       x="102.64779"
       xlink:href="#glyph0-9" />
    <use
       height="100%"
       width="100%"
       id="use801"
       y="299.34744"
       x="107.85693"
       xlink:href="#glyph0-16" />
    <use
       height="100%"
       width="100%"
       id="use803"
       y="299.34744"
       x="110.20937"
       xlink:href="#glyph0-26" />
    <use
       height="100%"
       width="100%"
       id="use805"
       y="299.34744"
       x="115.58371"
       xlink:href="#glyph0-9" />
    <use
       height="100%"
       width="100%"
       id="use807"
       y="299.34744"
       x="120.79286"
       xlink:href="#glyph0-6" />
    <use
       height="100%"
       width="100%"
       id="use809"
       y="299.34744"
       x="123.4841"
       xlink:href="#glyph0-12" />
    <use
       height="100%"
       width="100%"
       id="use811"
       y="299.34744"
       x="128.85846"
       xlink:href="#glyph0-9" />
    <use
       height="100%"
       width="100%"
       id="use813"
       y="299.34744"
       x="134.0676"
       xlink:href="#glyph0-11" />
    <use
       height="100%"
       width="100%"
       id="use815"
       y="299.34744"
       x="136.42003"
       xlink:href="#glyph0-5" />
    <use
       height="100%"
       width="100%"
       id="use817"
       y="299.34744"
       x="139.73981"
       xlink:href="#glyph0-9" />
  </g>
  <path
     inkscape:connector-curvature="0"
     id="path821"
     d="m 121.10156,411.09376 v 25.28906"
     style="fill:none;stroke:#000000;stroke-width:1;stroke-linecap:butt;stroke-linejoin:miter;stroke-miterlimit:10;stroke-opacity:1" />
  <path
     inkscape:connector-curvature="0"
     id="path823"
     d="m 121.10156,440.88282 -3,-6 3,1.5 3,-1.5 z m 0,0"
     style="fill:#000000;fill-opacity:1;fill-rule:evenodd;stroke:#000000;stroke-width:1;stroke-linecap:butt;stroke-linejoin:miter;stroke-miterlimit:10;stroke-opacity:1" />
  <g
     id="g833"
     style="fill:#000000;fill-opacity:1">
    <use
       height="100%"
       width="100%"
       id="use825"
       y="374.05838"
       x="31.472656"
       xlink:href="#glyph0-32" />
    <use
       height="100%"
       width="100%"
       id="use827"
       y="374.05838"
       x="37.806206"
       xlink:href="#glyph0-9" />
    <use
       height="100%"
       width="100%"
       id="use829"
       y="374.05838"
       x="43.015354"
       xlink:href="#glyph0-11" />
    <use
       height="100%"
       width="100%"
       id="use831"
       y="374.05838"
       x="45.367783"
       xlink:href="#glyph0-13" />
  </g>
  <path
     inkscape:connector-curvature="0"
     id="path835"
     d="m 121.10156,311.19532 v 35.1875"
     style="fill:none;stroke:#000000;stroke-width:1;stroke-linecap:butt;stroke-linejoin:miter;stroke-miterlimit:10;stroke-opacity:1" />
  <path
     inkscape:connector-curvature="0"
     id="path837"
     d="m 121.10156,350.88282 -3,-6 3,1.5 3,-1.5 z m 0,0"
     style="fill:#000000;fill-opacity:1;fill-rule:evenodd;stroke:#000000;stroke-width:1;stroke-linecap:butt;stroke-linejoin:miter;stroke-miterlimit:10;stroke-opacity:1" />
  <path
     inkscape:connector-curvature="0"
     id="path839"
     d="m 120.46484,500.88282 -0.54296,25.38672"
     style="fill:none;stroke:#000000;stroke-width:1;stroke-linecap:butt;stroke-linejoin:miter;stroke-miterlimit:10;stroke-opacity:1" />
  <path
     inkscape:connector-curvature="0"
     id="path841"
     d="m 119.82422,530.76954 -2.8711,-6.0625 2.96876,1.5626 3.03124,-1.4336 z m 0,0"
     style="fill:#000000;fill-opacity:1;fill-rule:evenodd;stroke:#000000;stroke-width:1;stroke-linecap:butt;stroke-linejoin:miter;stroke-miterlimit:10;stroke-opacity:1" />
</svg>
